------------- ISQRT ------------- 
pol_deg , N , max abs rel error 
2 & 1 & 3.8335e-03 \\ 
2 & 2 & 7.1823e-04 \\ 
2 & 4 & 1.1463e-04 \\ 
2 & 8 & 1.6430e-05 \\ 
2 & 16 & 2.2090e-06 \\ 
2 & 32 & 2.8674e-07 \\ 
2 & 64 & 3.6537e-08 \\ 
3 & 1 & 5.7648e-04 \\ 
3 & 2 & 6.3523e-05 \\ 
3 & 4 & 5.5903e-06 \\ 
3 & 8 & 4.2321e-07 \\ 
3 & 16 & 2.9293e-08 \\ 
3 & 32 & 1.9301e-09 \\ 
4 & 1 & 8.9120e-05 \\ 
4 & 2 & 5.7777e-06 \\ 
4 & 4 & 2.8042e-07 \\ 
4 & 8 & 1.1213e-08 \\ 
